slides
…
left_join()

flights |>
  left_join(planes, by = "tailnum", suffix = c("", "_built")) |>
  select(year, month, day, dep_time, arr_time, carrier, flight, tailnum, year_built, type, model)

# A tibble: 336,776 × 11
    year month   day dep_time arr_t…¹ carrier flight tailnum year_…² type  model
   <int> <int> <int>    <int>   <int> <chr>    <int> <chr>     <int> <chr> <chr>
 1  2013     1     1      517     830 UA        1545 N14228     1999 Fixe… 737-…
 2  2013     1     1      533     850 UA        1714 N24211     1998 Fixe… 737-…
 3  2013     1     1      542     923 AA        1141 N619AA     1990 Fixe… 757-…
 4  2013     1     1      544    1004 B6         725 N804JB     2012 Fixe… A320…
 5  2013     1     1      554     812 DL         461 N668DN     1991 Fixe… 757-…
 6  2013     1     1      554     740 UA        1696 N39463     2012 Fixe… 737-…
 7  2013     1     1      555     913 B6         507 N516JB     2000 Fixe… A320…
 8  2013     1     1      557     709 EV        5708 N829AS     1998 Fixe… CL-6…
 9  2013     1     1      557     838 B6          79 N593JB     2004 Fixe… A320…
10  2013     1     1      558     753 AA         301 N3ALAA       NA <NA>  <NA> 
# … with 336,766 more rows, and abbreviated variable names ¹​arr_time,
#   ²​year_built
…
