…
`dplyr::collect()` を使うとデータフレームとしてメモリに読み込まれます.


::: {.cell}

```{.r .cell-code  code-line-numbers="2"}
info |>
  collect()
```

::: {.cell-output .cell-output-stdout}
```
# A tibble: 168,574 × 23
   id_1922    date  hms   street num_s…¹ code_…² distr…³ type_…⁴ weather type_…⁵
   <chr>      <chr> <chr> <chr>  <chr>     <int> <chr>   <chr>   <fct>   <chr>  
 1 2018S0178… 04/0… 9:10… CALL.… 1             1 Centro  Colisi… sunny   Motoci…
 2 2018S0178… 04/0… 9:10… CALL.… 1             1 Centro  Colisi… sunny   Turismo
 3 2019S0000… 01/0… 3:45… PASEO… 168          11 Caraba… Alcance <NA>    Furgon…
 4 2019S0000… 01/0… 3:45… PASEO… 168          11 Caraba… Alcance <NA>    Turismo
 5 2019S0000… 01/0… 3:45… PASEO… 168          11 Caraba… Alcance <NA>    Turismo
 6 2019S0000… 01/0… 3:45… PASEO… 168          11 Caraba… Alcance <NA>    Turismo
 7 2019S0000… 01/0… 3:45… PASEO… 168          11 Caraba… Alcance <NA>    Turismo
 8 2019S0000… 01/0… 3:45… PASEO… 168          11 Caraba… Alcance <NA>    Turismo
 9 2019S0000… 01/0… 3:50… CALL.… 65           10 Latina  Choque… sunny   Furgon…
10 2019S0000… 01/0… 3:50… CALL.… 65           10 Latina  Choque… sunny   Turismo
# … with 168,564 more rows, 13 more variables: type_person <fct>, age_c <fct>,
#   gender <fct>, code_injury8 <chr>, injury8 <fct>, coord_x <chr>,
#   coord_y <chr>, positive_alcohol <lgl>, positive_drug <lgl>, year <int>,
#   time <dttm>, is_died <lgl>, is_hospitalized <lgl>, and abbreviated variable
#   names ¹​num_street, ²​code_district, ³​district, ⁴​type_accident, ⁵​type_vehicle
```
…
